VMM GFZ_Connector GFZ_Channel  QS1P1 QS1P2 QS1P3 QS1P4  QS2P1 QS2P2 QS2P3 QS2P4  QS3P1 QS3P2 QS3P3 QS3P4  QL1P1 QL1P2 QL1P3 QL1P4  QL2P1 QL2P2 QL2P3 QL2P4  QL3P1 QL3P2 QL3P3 QL3P4
N_Strip 406 406 406 406  365 365 365 365  307 307 307 307  408 408 408 408  366 366 366 366  353 353 353 353
                                 
VMM 0 P2 i 0    406 -1   -1   406  -1   -1   -1   -1    -1   -1   -1   -1    408 -1   -1   408  -1   -1   -1   -1    -1   -1   -1   -1
VMM 0 P2 i 1    405 -1   -1   405  -1   -1   -1   -1    -1   -1   -1   -1    407 -1   -1   407  -1   -1   -1   -1    -1   -1   -1   -1
VMM 0 P2 i 2    404 -1   -1   404  -1   -1   -1   -1    -1   -1   -1   -1    406 -1   -1   406  -1   -1   -1   -1    -1   -1   -1   -1
VMM 0 P2 i 3    403 -1   -1   403  -1   -1   -1   -1    -1   -1   -1   -1    405 -1   -1   405  -1   -1   -1   -1    -1   -1   -1   -1
VMM 0 P2 i 4    402 -1   -1   402  -1   -1   -1   -1    -1   -1   -1   -1    404 -1   -1   404  -1   -1   -1   -1    -1   -1   -1   -1
VMM 0 P2 i 5    401 -1   -1   401  -1   -1   -1   -1    -1   -1   -1   -1    403 -1   -1   403  -1   -1   -1   -1    -1   -1   -1   -1
VMM 0 P2 i 6    400 -1   -1   400  -1   -1   -1   -1    -1   -1   -1   -1    402 -1   -1   402  -1   -1   -1   -1    -1   -1   -1   -1
VMM 0 P2 i 7    399 -1   -1   399  -1   -1   -1   -1    -1   -1   -1   -1    401 -1   -1   401  -1   -1   -1   -1    -1   -1   -1   -1
VMM 0 P2 i 8    398 -1   -1   398  -1   -1   -1   -1    -1   -1   -1   -1    400 -1   -1   400  -1   -1   -1   -1    -1   -1   -1   -1
VMM 0 P2 i 9    397 -1   -1   397  -1   -1   -1   -1    -1   -1   -1   -1    399 -1   -1   399  -1   -1   -1   -1    -1   -1   -1   -1
VMM 0 P2 i 10   396 -1   -1   396  -1   -1   -1   -1    -1   -1   -1   -1    398 -1   -1   398  -1   -1   -1   -1    -1   -1   -1   -1
VMM 0 P2 i 11   395 -1   -1   395  -1   -1   -1   -1    -1   -1   -1   -1    397 -1   -1   397  -1   -1   -1   -1    -1   -1   -1   -1
VMM 0 P2 i 12   394 -1   -1   394  -1   -1   -1   -1    -1   -1   -1   -1    396 -1   -1   396  -1   -1   -1   -1    -1   -1   -1   -1
VMM 0 P2 i 13   393 -1   -1   393  -1   -1   -1   -1    -1   -1   -1   -1    395 -1   -1   395  -1   -1   -1   -1    -1   -1   -1   -1
VMM 0 P2 i 14   392 -1   -1   392  -1   -1   -1   -1    -1   -1   -1   -1    394 -1   -1   394  -1   -1   -1   -1    -1   -1   -1   -1
VMM 0 P2 i 15   391 -1   -1   391  -1   -1   -1   -1    -1   -1   -1   -1    393 -1   -1   393  -1   -1   -1   -1    -1   -1   -1   -1
VMM 0 P2 i 16   390 -1   -1   390  -1   -1   -1   -1    -1   -1   -1   -1    392 -1   -1   392  -1   -1   -1   -1    -1   -1   -1   -1
VMM 0 P2 i 17   389 -1   -1   389  -1   -1   -1   -1    -1   -1   -1   -1    391 -1   -1   391  -1   -1   -1   -1    -1   -1   -1   -1
VMM 0 P2 i 18   388 -1   -1   388  -1   -1   -1   -1    -1   -1   -1   -1    390 -1   -1   390  -1   -1   -1   -1    -1   -1   -1   -1
VMM 0 P2 i 19   387 -1   -1   387  -1   -1   -1   -1    -1   -1   -1   -1    389 -1   -1   389  -1   -1   -1   -1    -1   -1   -1   -1
VMM 0 P2 i 20   386 -1   -1   386  -1   -1   -1   -1    -1   -1   -1   -1    388 -1   -1   388  -1   -1   -1   -1    -1   -1   -1   -1
VMM 0 P2 i 21   385 -1   -1   385  -1   -1   -1   -1    -1   -1   -1   -1    387 -1   -1   387  -1   -1   -1   -1    -1   -1   -1   -1
VMM 0 P2 i 22   384 -1   -1   384  -1   -1   -1   -1    -1   -1   -1   -1    386 -1   -1   386  -1   -1   -1   -1    -1   -1   -1   -1
VMM 0 P2 i 23   383 -1   -1   383  -1   -1   -1   -1    -1   -1   -1   -1    385 -1   -1   385  -1   -1   -1   -1    -1   -1   -1   -1
VMM 0 P2 i 24   382 -1   -1   382  -1   -1   -1   -1    -1   -1   -1   -1    384 -1   -1   384  -1   -1   -1   -1    -1   -1   -1   -1
VMM 0 P2 i 25   381 -1   -1   381  -1   -1   -1   -1    -1   -1   -1   -1    383 -1   -1   383  -1   -1   -1   -1    -1   -1   -1   -1
VMM 0 P2 i 26   380 -1   -1   380  -1   -1   -1   -1    -1   -1   -1   -1    382 -1   -1   382  -1   -1   -1   -1    -1   -1   -1   -1
VMM 0 P2 i 27   379 -1   -1   379  -1   -1   -1   -1    -1   -1   -1   -1    381 -1   -1   381  -1   -1   -1   -1    -1   -1   -1   -1
VMM 0 P2 i 28   378 -1   -1   378  -1   -1   -1   -1    -1   -1   -1   -1    380 -1   -1   380  -1   -1   -1   -1    -1   -1   -1   -1
VMM 0 P2 i 29   377 -1   -1   377  -1   -1   -1   -1    -1   -1   -1   -1    379 -1   -1   379  -1   -1   -1   -1    -1   -1   -1   -1
VMM 0 P2 i 30   376 -1   -1   376  -1   -1   -1   -1    -1   -1   -1   -1    378 -1   -1   378  -1   -1   -1   -1    -1   -1   -1   -1
VMM 0 P2 i 31   375 -1   -1   375  -1   -1   -1   -1    -1   -1   -1   -1    377 -1   -1   377  -1   -1   -1   -1    -1   -1   -1   -1
VMM 0 P2 i 32   374 -1   -1   374  -1   -1   -1   -1    -1   -1   -1   -1    376 -1   -1   376  -1   -1   -1   -1    -1   -1   -1   -1
VMM 0 P2 i 33   373 -1   -1   373  -1   -1   -1   -1    -1   -1   -1   -1    375 -1   -1   375  -1   -1   -1   -1    -1   -1   -1   -1
VMM 0 P2 i 34   372 -1   -1   372  -1   -1   -1   -1    -1   -1   -1   -1    374 -1   -1   374  -1   -1   -1   -1    -1   -1   -1   -1
VMM 0 P2 i 35   371 -1   -1   371  -1   -1   -1   -1    -1   -1   -1   -1    373 -1   -1   373  -1   -1   -1   -1    -1   -1   -1   -1
VMM 0 P2 i 36   370 -1   -1   370  -1   -1   -1   -1    -1   -1   -1   -1    372 -1   -1   372  -1   -1   -1   -1    -1   -1   -1   -1
VMM 0 P2 i 37   369 -1   -1   369  -1   -1   -1   -1    -1   -1   -1   -1    371 -1   -1   371  -1   -1   -1   -1    -1   -1   -1   -1
VMM 0 P2 i 38   368 -1   -1   368  -1   -1   -1   -1    -1   -1   -1   -1    370 -1   -1   370  -1   -1   -1   -1    -1   -1   -1   -1
VMM 0 P2 i 39   367 -1   -1   367  -1   -1   -1   -1    -1   -1   -1   -1    369 -1   -1   369  -1   -1   -1   -1    -1   -1   -1   -1
VMM 0 P2 i 40   366 -1   -1   366  -1   -1   -1   -1    -1   -1   -1   -1    368 1   1   368  -1   -1   -1   -1    -1   -1   -1   -1
VMM 0 P2 i 41   365 -1   -1   365  -1   -1   -1   -1    -1   -1   -1   -1    367 2   2   367  -1   -1   -1   -1    -1   -1   -1   -1
VMM 0 P2 i 42   364 1   1   364  -1   -1   -1   -1    -1   -1   -1   -1    366 3   3   366  -1   -1   -1   -1    -1   -1   -1   -1
VMM 0 P2 i 43   363 2   2   363  -1   -1   -1   -1    -1   -1   -1   -1    365 4   4   365  -1   -1   -1   -1    -1   -1   -1   -1
VMM 0 P2 i 44   362 3   3   362  -1   -1   -1   -1    -1   -1   -1   -1    364 5   5   364  -1   -1   -1   -1    -1   -1   -1   -1
VMM 0 P2 i 45   361 4   4   361  -1   -1   -1   -1    -1   -1   -1   -1    363 6   6   363  -1   -1   -1   -1    -1   -1   -1   -1
VMM 0 P2 i 46   360 5   5   360  -1   -1   -1   -1    -1   -1   -1   -1    362 7   7   362  -1   -1   -1   -1    -1   -1   -1   -1
VMM 0 P2 i 47   359 6   6   359  -1   -1   -1   -1    -1   -1   -1   -1    361 8   8   361  -1   -1   -1   -1    -1   -1   -1   -1
VMM 0 P2 i 48   358 7   7   358  -1   -1   -1   -1    -1   -1   -1   -1    360 9   9   360  -1   -1   -1   -1    -1   -1   -1   -1
VMM 0 P2 i 49   357 8   8   357  -1   -1   -1   -1    -1   -1   -1   -1    359 10  10  359  -1   -1   -1   -1    -1   -1   -1   -1
VMM 0 P2 i 50   356 9   9   356  -1   -1   -1   -1    -1   -1   -1   -1    358 11  11  358  -1   -1   -1   -1    -1   -1   -1   -1
VMM 0 P2 i 51   355 10  10  355  -1   -1   -1   -1    -1   -1   -1   -1    357 12  12  357  -1   -1   -1   -1    -1   -1   -1   -1
VMM 0 P2 i 52   354 11  11  354  -1   -1   -1   -1    -1   -1   -1   -1    356 13  13  356  -1   -1   -1   -1    -1   -1   -1   -1
VMM 0 P2 i 53   353 12  12  353  -1   -1   -1   -1    -1   -1   -1   -1    355 14  14  355  -1   -1   -1   -1    -1   -1   -1   -1
VMM 0 P2 i 54   352 13  13  352  -1   -1   -1   -1    -1   -1   -1   -1    354 15  15  354  -1   -1   -1   -1    -1   -1   -1   -1
VMM 0 P2 i 55   351 14  14  351  -1   -1   -1   -1    -1   -1   -1   -1    353 16  16  353  -1   -1   -1   -1    -1   -1   -1   -1
VMM 0 P2 i 56   350 15  15  350  -1   -1   -1   -1    -1   -1   -1   -1    352 17  17  352  -1   -1   -1   -1    -1   -1   -1   -1
VMM 0 P2 i 57   349 16  16  349  -1   -1   -1   -1    -1   -1   -1   -1    351 18  18  351  -1   -1   -1   -1    -1   -1   -1   -1
VMM 0 P2 i 58   348 17  17  348  -1   -1   -1   -1    -1   -1   -1   -1    350 19  19  350  -1   -1   -1   -1    -1   -1   -1   -1
VMM 0 P2 i 59   347 18  18  347  -1   -1   -1   -1    -1   -1   -1   -1    349 20  20  349  -1   -1   -1   -1    -1   -1   -1   -1
VMM 0 P2 i 60   346 19  19  346  -1   -1   -1   -1    -1   -1   -1   -1    348 21  21  348  -1   -1   -1   -1    -1   -1   -1   -1
VMM 0 P2 i 61   345 20  20  345  -1   -1   -1   -1    -1   -1   -1   -1    347 22  22  347  -1   -1   -1   -1    -1   -1   -1   -1
VMM 0 P2 i 62   344 21  21  344  -1   -1   -1   -1    -1   -1   -1   -1    346 23  23  346  -1   -1   -1   -1    -1   -1   -1   -1
VMM 0 P2 i 63   343 22  22  343  -1   -1   -1   -1    -1   -1   -1   -1    345 24  24  345          
VMM 1 P2 i 64   342 23  23  342  -1   -1   -1   -1    -1   -1   -1   -1    344 25  25  344  -1   -1   -1   -1    -1   -1   -1   -1
VMM 1 P2 i 65   341 24  24  341  -1   -1   -1   -1    -1   -1   -1   -1    343 26  26  343  -1   -1   -1   -1    -1   -1   -1   -1
VMM 1 P2 i 66   340 25  25  340  -1   -1   -1   -1    -1   -1   -1   -1    342 27  27  342  -1   -1   -1   -1    -1   -1   -1   -1
VMM 1 P2 i 67   339 26  26  339  -1   -1   -1   -1    -1   -1   -1   -1    341 28  28  341  -1   -1   -1   -1    -1   -1   -1   -1
VMM 1 P2 i 68   338 27  27  338  -1   -1   -1   -1    -1   -1   -1   -1    340 29  29  340  -1   -1   -1   -1    -1   -1   -1   -1
VMM 1 P2 i 69   337 28  28  337  -1   -1   -1   -1    -1   -1   -1   -1    339 30  30  339  -1   -1   -1   -1    -1   -1   -1   -1
VMM 1 P2 i 70   336 29  29  336  -1   -1   -1   -1    -1   -1   -1   -1    338 31  31  338  -1   -1   -1   -1    -1   -1   -1   -1
VMM 1 P2 i 71   335 30  30  335  -1   -1   -1   -1    -1   -1   -1   -1    337 32  32  337  -1   -1   -1   -1    -1   -1   -1   -1
VMM 1 P2 i 72   334 31  31  334  -1   -1   -1   -1    -1   -1   -1   -1    336 33  33  336  -1   -1   -1   -1    -1   -1   -1   -1
VMM 1 P2 i 73   333 32  32  333  -1   -1   -1   -1    -1   -1   -1   -1    335 34  34  335  -1   -1   -1   -1    -1   -1   -1   -1
VMM 1 P2 i 74   332 33  33  332  -1   -1   -1   -1    -1   -1   -1   -1    334 35  35  334  -1   -1   -1   -1    -1   -1   -1   -1
VMM 1 P2 i 75   331 34  34  331  -1   -1   -1   -1    -1   -1   -1   -1    333 36  36  333  -1   -1   -1   -1    -1   -1   -1   -1
VMM 1 P2 i 76   330 35  35  330  -1   -1   -1   -1    -1   -1   -1   -1    332 37  37  332  -1   -1   -1   -1    -1   -1   -1   -1
VMM 1 P2 i 77   329 36  36  329  -1   -1   -1   -1    -1   -1   -1   -1    331 38  38  331  -1   -1   -1   -1    -1   -1   -1   -1
VMM 1 P2 i 78   328 37  37  328  -1   -1   -1   -1    -1   -1   -1   -1    330 39  39  330  -1   -1   -1   -1    -1   -1   -1   -1
VMM 1 P2 i 79   327 38  38  327  -1   -1   -1   -1    -1   -1   -1   -1    329 40  40  329  -1   -1   -1   -1    -1   -1   -1   -1
VMM 1 P2 i 80   326 -1   -1   326  -1   -1   -1   -1    -1   -1   -1   -1    328 -1   -1   328  -1   -1   -1   -1    -1   -1   -1   -1
VMM 1 P2 i 81   325 -1   -1   325  -1   -1   -1   -1    -1   -1   -1   -1    327 -1   -1   327  -1   -1   -1   -1    -1   -1   -1   -1
VMM 1 P2 i 82   324 -1   -1   324  -1   -1   -1   -1    -1   -1   -1   -1    326 -1   -1   326  -1   -1   -1   -1    -1   -1   -1   -1
VMM 1 P2 i 83   323 -1   -1   323  -1   -1   -1   -1    -1   -1   -1   -1    325 -1   -1   325  -1   -1   -1   -1    -1   -1   -1   -1
VMM 1 P2 i 84   322 -1   -1   322  -1   -1   -1   -1    -1   -1   -1   -1    324 -1   -1   324  -1   -1   -1   -1    -1   -1   -1   -1
VMM 1 P2 i 85   321 -1   -1   321  -1   -1   -1   -1    -1   -1   -1   -1    323 -1   -1   323  -1   -1   -1   -1    -1   -1   -1   -1
VMM 1 P2 i 86   320 -1   -1   320  -1   -1   -1   -1    -1   -1   -1   -1    322 -1   -1   322  -1   -1   -1   -1    -1   -1   -1   -1
VMM 1 P2 i 87   319 -1   -1   319  -1   -1   -1   -1    -1   -1   -1   -1    321 -1   -1   321  -1   -1   -1   -1    -1   -1   -1   -1
VMM 1 P2 i 88   318 -1   -1   318  -1   -1   -1   -1    -1   -1   -1   -1    320 -1   -1   320  -1   -1   -1   -1    -1   -1   -1   -1
VMM 1 P2 i 89   317 -1   -1   317  -1   -1   -1   -1    -1   -1   -1   -1    319 -1   -1   319  -1   -1   -1   -1    -1   -1   -1   -1
VMM 1 P2 i 90   316 -1   -1   316  -1   -1   -1   -1    -1   -1   -1   -1    318 -1   -1   318  -1   -1   -1   -1    -1   -1   -1   -1
VMM 1 P2 i 91   315 -1   -1   315  -1   -1   -1   -1    -1   -1   -1   -1    317 -1   -1   317  -1   -1   -1   -1    -1   -1   -1   -1
VMM 1 P2 i 92   314 -1   -1   314  -1   -1   -1   -1    -1   -1   -1   -1    316 -1   -1   316  -1   -1   -1   -1    -1   -1   -1   -1
VMM 1 P2 i 93   313 -1   -1   313  -1   -1   -1   -1    -1   -1   -1   -1    315 -1   -1   315  -1   -1   -1   -1    -1   -1   -1   -1
VMM 1 P2 i 94   312 -1   -1   312  -1   -1   -1   -1    -1   -1   -1   -1    314 -1   -1   314  -1   -1   -1   -1    -1   -1   -1   -1
VMM 1 P2 i 95   311 -1   -1   311  -1   -1   -1   -1    -1   -1   -1   -1    313 -1   -1   313  -1   -1   -1   -1    -1   -1   -1   -1
VMM 1 P2 i 96   310 -1   -1   310  -1   -1   -1   -1    -1   -1   -1   -1    312 -1   -1   312  -1   -1   -1   -1    -1   -1   -1   -1
VMM 1 P2 i 97   309 -1   -1   309  -1   -1   -1   -1    -1   -1   -1   -1    311 -1   -1   311  -1   -1   -1   -1    -1   -1   -1   -1
VMM 1 P2 i 98   308 -1   -1   308  -1   -1   -1   -1    -1   -1   -1   -1    310 -1   -1   310  -1   -1   -1   -1    -1   -1   -1   -1
VMM 1 P2 i 99   307 -1   -1   307  -1   -1   -1   -1    -1   -1   -1   -1    309 -1   -1   309  -1   -1   -1   -1    -1   -1   -1   -1
VMM 1 P2 i 100  306 -1   -1   306  -1   -1   -1   -1    -1   -1   -1   -1    308 -1   -1   308  -1   -1   -1   -1    -1   -1   -1   -1
VMM 1 P2 i 101  305 -1   -1   305  -1   -1   -1   -1    -1   -1   -1   -1    307 -1   -1   307  -1   -1   -1   -1    -1   -1   -1   -1
VMM 1 P2 i 102  304 -1   -1   304  -1   -1   -1   -1    -1   -1   -1   -1    306 -1   -1   306  -1   -1   -1   -1    -1   -1   -1   -1
VMM 1 P2 i 103  303 -1   -1   303  -1   -1   -1   -1    -1   -1   -1   -1    305 -1   -1   305  -1   -1   -1   -1    -1   -1   -1   -1
VMM 1 P2 i 104  302 -1   -1   302  -1   -1   -1   -1    -1   -1   -1   -1    304 -1   -1   304  -1   -1   -1   -1    -1   -1   -1   -1
VMM 1 P2 i 105  301 -1   -1   301  -1   -1   -1   -1    -1   -1   -1   -1    303 -1   -1   303  -1   -1   -1   -1    -1   -1   -1   -1
VMM 1 P2 i 106  300 -1   -1   300  -1   -1   -1   -1    -1   -1   -1   -1    302 -1   -1   302  -1   -1   -1   -1    -1   -1   -1   -1
VMM 1 P2 i 107  299 -1   -1   299  -1   -1   -1   -1    -1   -1   -1   -1    301 -1   -1   301  -1   -1   -1   -1    -1   -1   -1   -1
VMM 1 P2 i 108  298 -1   -1   298  -1   -1   -1   -1    -1   -1   -1   -1    300 -1   -1   300  -1   -1   -1   -1    -1   -1   -1   -1
VMM 1 P2 i 109  297 -1   -1   297  -1   -1   -1   -1    -1   -1   -1   -1    299 -1   -1   299  -1   -1   -1   -1    -1   -1   -1   -1
VMM 1 P2 i 110  296 -1   -1   296  -1   -1   -1   -1    -1   -1   -1   -1    298 -1   -1   298  -1   -1   -1   -1    -1   -1   -1   -1
VMM 1 P2 i 111  295 -1   -1   295  -1   -1   -1   -1    -1   -1   -1   -1    297 -1   -1   297  -1   -1   -1   -1    -1   -1   -1   -1
VMM 1 P2 i 112  294 39 39 294  -1   -1   -1   -1    -1   -1   -1   -1    296 41 41 296  -1   -1   -1   -1    -1   -1   -1   -1
VMM 1 P2 i 113  293 40 40 293  -1   -1   -1   -1    -1   -1   -1   -1    295 42 42 295  -1   -1   -1   -1    -1   -1   -1   -1
VMM 1 P2 i 114  292 41 41 292  -1   -1   -1   -1    -1   -1   -1   -1    294 43 43 294  -1   -1   -1   -1    -1   -1   -1   -1
VMM 1 P2 i 115  291 42 42 291  -1   -1   -1   -1    -1   -1   -1   -1    293 44 44 293  -1   -1   -1   -1    -1   -1   -1   -1
VMM 1 P2 i 116  290 43 43 290  -1   -1   -1   -1    -1   -1   -1   -1    292 45 45 292  -1   -1   -1   -1    -1   -1   -1   -1
VMM 1 P2 i 117  289 44 44 289  -1   -1   -1   -1    -1   -1   -1   -1    291 46 46 291  -1   -1   -1   -1    -1   -1   -1   -1
VMM 1 P2 i 118  288 45 45 288  -1   -1   -1   -1    -1   -1   -1   -1    290 47 47 290  -1   -1   -1   -1    -1   -1   -1   -1
VMM 1 P2 i 119  287 46 46 287  -1   -1   -1   -1    -1   -1   -1   -1    289 48 48 289  -1   -1   -1   -1    -1   -1   -1   -1
VMM 1 P2 i 120  286 47 47 286  -1   -1   -1   -1    -1   -1   -1   -1    288 49 49 288  -1   -1   -1   -1    -1   -1   -1   -1
VMM 1 P2 i 121  285 48 48 285  -1   -1   -1   -1    -1   -1   -1   -1    287 50 50 287  -1   -1   -1   -1    -1   -1   -1   -1
VMM 1 P2 i 122  284 49 49 284  -1   -1   -1   -1    -1   -1   -1   -1    286 51 51 286  -1   -1   -1   -1    -1   -1   -1   -1
VMM 1 P2 i 123  283 50 50 283  -1   -1   -1   -1    -1   -1   -1   -1    285 52 52 285  -1   -1   -1   -1    -1   -1   -1   -1
VMM 1 P2 i 124  282 51 51 282  -1   -1   -1   -1    -1   -1   -1   -1    284 53 53 284  -1   -1   -1   -1    -1   -1   -1   -1
VMM 1 P2 i 125  281 52 52 281  -1   -1   -1   -1    -1   -1   -1   -1    283 54 54 283  -1   -1   -1   -1    -1   -1   -1   -1
VMM 1 P2 i 126  280 53 53 280  -1   -1   -1   -1    -1   -1   -1   -1    282 55 55 282  -1   -1   -1   -1    -1   -1   -1   -1
VMM 1 P2 i 127  279 54 54 279  -1   -1   -1   -1    -1   -1   -1   -1    281 56 56 281  -1   -1   -1   -1    -1   -1   -1   -1
VMM 2 P2 j 0  278 55 55 278  -1   -1   -1   -1    -1   -1   -1   -1    280 57 57 280  -1   -1   -1   -1    -1   -1   -1   -1
VMM 2 P2 j 1  277 56 56 277  -1   -1   -1   -1    -1   -1   -1   -1    279 58 58 279  -1   -1   -1   -1    -1   -1   -1   -1
VMM 2 P2 j 2  276 57 57 276  -1   -1   -1   -1    -1   -1   -1   -1    278 59 59 278  -1   -1   -1   -1    -1   -1   -1   -1
VMM 2 P2 j 3  275 58 58 275  -1   -1   -1   -1    -1   -1   -1   -1    277 60 60 277  -1   -1   -1   -1    -1   -1   -1   -1
VMM 2 P2 j 4  274 59 59 274  -1   -1   -1   -1    -1   -1   -1   -1    276 61 61 276  -1   -1   -1   -1    -1   -1   -1   -1
VMM 2 P2 j 5  273 60 60 273  -1   -1   -1   -1    -1   -1   -1   -1    275 62 62 275  -1   -1   -1   -1    -1   -1   -1   -1
VMM 2 P2 j 6  272 61 61 272  -1   -1   -1   -1    -1   -1   -1   -1    274 63 63 274  -1   -1   -1   -1    -1   -1   -1   -1
VMM 2 P2 j 7  271 62 62 271  -1   -1   -1   -1    -1   -1   -1   -1    273 64 64 273  -1   -1   -1   -1    -1   -1   -1   -1
VMM 2 P2 j 8  270 63 63 270  -1   -1   -1   -1    -1   -1   -1   -1    272 65 65 272  -1   -1   -1   -1    -1   -1   -1   -1
VMM 2 P2 j 9  269 64 64 269  -1   -1   -1   -1    -1   -1   -1   -1    271 66 66 271  -1   -1   -1   -1    -1   -1   -1   -1
VMM 2 P2 j 10  268 65 65 268  -1   -1   -1   -1    -1   -1   -1   -1    270 67 67 270  -1   -1   -1   -1    -1   -1   -1   -1
VMM 2 P2 j 11  267 66 66 267  -1   -1   -1   -1    -1   -1   -1   -1    269 68 68 269  -1   -1   -1   -1    -1   -1   -1   -1
VMM 2 P2 j 12  266 67 67 266  -1   -1   -1   -1    -1   -1   -1   -1    268 69 69 268  -1   -1   -1   -1    -1   -1   -1   -1
VMM 2 P2 j 13  265 68 68 265  -1   -1   -1   -1    -1   -1   -1   -1    267 70 70 267  -1   -1   -1   -1    -1   -1   -1   -1
VMM 2 P2 j 14  264 69 69 264  -1   -1   -1   -1    -1   -1   -1   -1    266 71 71 266  -1   -1   -1   -1    -1   -1   -1   -1
VMM 2 P2 j 15  263 70 70 263  -1   -1   -1   -1    -1   -1   -1   -1    265 72 72 265  -1   -1   -1   -1    -1   -1   -1   -1
VMM 2 P2 j 16  262 -1   -1   262  -1   -1   -1   -1    -1   -1   -1   -1    264 -1   -1   264  -1   -1   -1   -1    -1   -1   -1   -1
VMM 2 P2 j 17  261 -1   -1   261  -1   -1   -1   -1    -1   -1   -1   -1    263 -1   -1   263  -1   -1   -1   -1    -1   -1   -1   -1
VMM 2 P2 j 18  260 -1   -1   260  -1   -1   -1   -1    -1   -1   -1   -1    262 -1   -1   262  366 1 1 366  -1   -1   -1   -1
VMM 2 P2 j 19  259 -1   -1   259  365 1 1 365  -1   -1   -1   -1    261 -1   -1   261  365 2 2 365  -1   -1   -1   -1
VMM 2 P2 j 20  258 -1   -1   258  364 2 2 364  -1   -1   -1   -1    260 -1   -1   260  364 3 3 364  -1   -1   -1   -1
VMM 2 P2 j 21  257 -1   -1   257  363 3 3 363  -1   -1   -1   -1    259 -1   -1   259  363 4 4 363  -1   -1   -1   -1
VMM 2 P2 j 22  256 -1   -1   256  362 4 4 362  -1   -1   -1   -1    258 -1   -1   258  362 5 5 362  -1   -1   -1   -1
VMM 2 P2 j 23  255 -1   -1   255  361 5 5 361  -1   -1   -1   -1    257 -1   -1   257  361 6 6 361  -1   -1   -1   -1
VMM 2 P2 j 24  254 -1   -1   254  360 6 6 360  -1   -1   -1   -1    256 -1   -1   256  360 7 7 360  -1   -1   -1   -1
VMM 2 P2 j 25  253 -1   -1   253  359 7 7 359  -1   -1   -1   -1    255 -1   -1   255  359 8 8 359  -1   -1   -1   -1
VMM 2 P2 j 26  252 -1   -1   252  358 8 8 358  -1   -1   -1   -1    254 -1   -1   254  358 9 9 358  -1   -1   -1   -1
VMM 2 P2 j 27  251 -1   -1   251  357 9 9 357  -1   -1   -1   -1    253 -1   -1   253  357 10 10 357  -1   -1   -1   -1
VMM 2 P2 j 28  250 -1   -1   250  356 10 10 356  -1   -1   -1   -1    252 -1   -1   252  356 11 11 356  -1   -1   -1   -1
VMM 2 P2 j 29  249 -1   -1   249  355 11 11 355  -1   -1   -1   -1    251 -1   -1   251  355 12 12 355  -1   -1   -1   -1
VMM 2 P2 j 30  248 -1   -1   248  354 12 12 354  -1   -1   -1   -1    250 -1   -1   250  354 13 13 354  -1   -1   -1   -1
VMM 2 P2 j 31  247 -1   -1   247  353 13 13 353  -1   -1   -1   -1    249 -1   -1   249  353 14 14 353  353 1 1 353
VMM 2 P2 j 32  246 -1   -1   246  352 14 14 352  -1   -1   -1   -1    248 -1   -1   248  352 15 15 352  352 2 2 352
VMM 2 P2 j 33  245 -1   -1   245  351 15 15 351  -1   -1   -1   -1    247 -1   -1   247  351 16 16 351  351 3 3 351
VMM 2 P2 j 34  244 -1   -1   244  350 16 16 350  -1   -1   -1   -1    246 -1   -1   246  350 17 17 350  350 4 4 350
VMM 2 P2 j 35  243 -1   -1   243  349 17 17 349  -1   -1   -1   -1    245 -1   -1   245  349 18 18 349  349 5 5 349
VMM 2 P2 j 36  242 -1   -1   242  348 18 18 348  -1   -1   -1   -1    244 -1   -1   244  348 19 19 348  348 6 6 348
VMM 2 P2 j 37  241 -1   -1   241  347 19 19 347  -1   -1   -1   -1    243 -1   -1   243  347 20 20 347  347 7 7 347
VMM 2 P2 j 38  240 -1   -1   240  346 20 20 346  -1   -1   -1   -1    242 -1   -1   242  346 21 21 346  346 8 8 346
VMM 2 P2 j 39  239 -1   -1   239  345 21 21 345  -1   -1   -1   -1    241 -1   -1   241  345 22 22 345  345 9 9 345
VMM 2 P2 j 40  238 -1   -1   238  344 22 22 344  -1   -1   -1   -1    240 -1   -1   240  344 23 23 344  344 10 10 344
VMM 2 P2 j 41  237 -1   -1   237  343 23 23 343  -1   -1   -1   -1    239 -1   -1   239  343 24 24 343  343 11 11 343
VMM 2 P2 j 42  236 -1   -1   236  342 24 24 342  -1   -1   -1   -1    238 -1   -1   238  342 25 25 342  342 12 12 342
VMM 2 P2 j 43  235 -1   -1   235  341 25 25 341  -1   -1   -1   -1    237 -1   -1   237  341 26 26 341  341 13 13 341
VMM 2 P2 j 44  234 -1   -1   234  340 26 26 340  -1   -1   -1   -1    236 -1   -1   236  340 27 27 340  340 14 14 340
VMM 2 P2 j 45  233 -1   -1   233  339 27 27 339  -1   -1   -1   -1    235 -1   -1   235  339 28 28 339  339 15 15 339
VMM 2 P2 j 46  232 -1   -1   232  338 28 28 338  -1   -1   -1   -1    234 -1   -1   234  338 29 29 338  338 16 16 338
VMM 2 P2 j 47  231 -1   -1   231  337 29 29 337  -1   -1   -1   -1    233 -1   -1   233  337 30 30 337  337 17 17 337
VMM 2 P2 j 48  230 71 71 230  336 30 30 336  -1   -1   -1   -1    232 73 73 232  336 31 31 336  336 18 18 336
VMM 2 P2 j 49  229 72 72 229  335 31 31 335  -1   -1   -1   -1    231 74 74 231  335 32 32 335  335 19 19 335
VMM 2 P2 j 50  228 73 73 228  334 32 32 334  -1   -1   -1   -1    230 75 75 230  334 33 33 334  334 20 20 334
VMM 2 P2 j 51  227 74 74 227  333 33 33 333  -1   -1   -1   -1    229 76 76 229  333 34 34 333  333 21 21 333
VMM 2 P2 j 52  226 75 75 226  332 34 34 332  -1   -1   -1   -1    228 77 77 228  332 35 35 332  332 22 22 332
VMM 2 P2 j 53  225 76 76 225  331 35 35 331  -1   -1   -1   -1    227 78 78 227  331 36 36 331  331 23 23 331
VMM 2 P2 j 54  224 77 77 224  330 36 36 330  -1   -1   -1   -1    226 79 79 226  330 37 37 330  330 24 24 330
VMM 2 P2 j 55  223 78 78 223  329 37 37 329  -1   -1   -1   -1    225 80 80 225  329 38 38 329  329 25 25 329
VMM 2 P2 j 56  222 79 79 222  328 38 38 328  -1   -1   -1   -1    224 81 81 224  328 39 39 328  328 26 26 328
VMM 2 P2 j 57  221 80 80 221  327 39 39 327  -1   -1   -1   -1    223 82 82 223  327 40 40 327  327 27 27 327
VMM 2 P2 j 58  220 81 81 220  326 40 40 326  -1   -1   -1   -1    222 83 83 222  326 41 41 326  326 28 28 326
VMM 2 P2 j 59  219 82 82 219  325 41 41 325  -1   -1   -1   -1    221 84 84 221  325 42 42 325  325 29 29 325
VMM 2 P2 j 60  218 83 83 218  324 42 42 324  -1   -1   -1   -1    220 85 85 220  324 43 43 324  324 30 30 324
VMM 2 P2 j 61  217 84 84 217  323 43 43 323  -1   -1   -1   -1    219 86 86 219  323 44 44 323  323 31 31 323
VMM 2 P2 j 62  216 85 85 216  322 44 44 322  -1   -1   -1   -1    218 87 87 218  322 45 45 322  322 32 32 322
VMM 2 P2 j 63  215 86 86 215  321 45 45 321  -1   -1   -1   -1    217 88 88 217  321 46 46 321  321 33 33 321
VMM 3 P2 j 64  214 87 87 214  320 46 46 320  -1   -1   -1   -1    216 89 89 216  320 47 47 320  320 34 34 320
VMM 3 P2 j 65  213 88 88 213  319 47 47 319  -1   -1   -1   -1    215 90 90 215  319 48 48 319  319 35 35 319
VMM 3 P2 j 66  212 89 89 212  318 48 48 318  -1   -1   -1   -1    214 91 91 214  318 49 49 318  318 36 36 318
VMM 3 P2 j 67  211 90 90 211  317 49 49 317  -1   -1   -1   -1    213 92 92 213  317 50 50 317  317 37 37 317
VMM 3 P2 j 68  210 91 91 210  316 50 50 316  -1   -1   -1   -1    212 93 93 212  316 51 51 316  316 38 38 316
VMM 3 P2 j 69  209 92 92 209  315 51 51 315  -1   -1   -1   -1    211 94 94 211  315 52 52 315  315 39 39 315
VMM 3 P2 j 70  208 93 93 208  314 52 52 314  -1   -1   -1   -1    210 95 95 210  314 53 53 314  314 40 40 314
VMM 3 P2 j 71  207 94 94 207  313 53 53 313  -1   -1   -1   -1    209 96 96 209  313 54 54 313  313 41 41 313
VMM 3 P2 j 72  206 95 95 206  312 54 54 312  -1   -1   -1   -1    208 97 97 208  312 55 55 312  312 42 42 312
VMM 3 P2 j 73  205 96 96 205  311 55 55 311  -1   -1   -1   -1    207 98 98 207  311 56 56 311  311 43 43 311
VMM 3 P2 j 74  204 97 97 204  310 56 56 310  -1   -1   -1   -1    206 99 99 206  310 57 57 310  310 44 44 310
VMM 3 P2 j 75  203 98 98 203  309 57 57 309  -1   -1   -1   -1    205 100 100 205  309 58 58 309  309 45 45 309
VMM 3 P2 j 76  202 99 99 202  308 58 58 308  -1   -1   -1   -1    204 101 101 204  308 59 59 308  308 46 46 308
VMM 3 P2 j 77  201 100 100 201  307 59 59 307  307 1 1 307  203 102 102 203  307 60 60 307  307 47 47 307
VMM 3 P2 j 78  200 101 101 200  306 60 60 306  306 2 2 306  202 103 103 202  306 61 61 306  306 48 48 306
VMM 3 P2 j 79  199 102 102 199  305 61 61 305  305 3 3 305  201 104 104 201  305 62 62 305  305 49 49 305
VMM 3 P2 j 80  198 103 103 198  304 62 62 304  304 4 4 304  200 105 105 200  304 63 63 304  304 50 50 304
VMM 3 P2 j 81  197 104 104 197  303 63 63 303  303 5 5 303  199 106 106 199  303 64 64 303  303 51 51 303
VMM 3 P2 j 82  196 105 105 196  302 64 64 302  302 6 6 302  198 107 107 198  302 65 65 302  302 52 52 302
VMM 3 P2 j 83  195 106 106 195  301 65 65 301  301 7 7 301  197 108 108 197  301 66 66 301  301 53 53 301
VMM 3 P2 j 84  194 107 107 194  300 66 66 300  300 8 8 300  196 109 109 196  300 67 67 300  300 54 54 300
VMM 3 P2 j 85  193 108 108 193  299 67 67 299  299 9 9 299  195 110 110 195  299 68 68 299  299 55 55 299
VMM 3 P2 j 86  192 109 109 192  298 68 68 298  298 10 10 298  194 111 111 194  298 69 69 298  298 56 56 298
VMM 3 P2 j 87  191 110 110 191  297 69 69 297  297 11 11 297  193 112 112 193  297 70 70 297  297 57 57 297
VMM 3 P2 j 88  190 111 111 190  296 70 70 296  296 12 12 296  192 113 113 192  296 71 71 296  296 58 58 296
VMM 3 P2 j 89  189 112 112 189  295 71 71 295  295 13 13 295  191 114 114 191  295 72 72 295  295 59 59 295
VMM 3 P2 j 90  188 113 113 188  294 72 72 294  294 14 14 294  190 115 115 190  294 73 73 294  294 60 60 294
VMM 3 P2 j 91  187 114 114 187  293 73 73 293  293 15 15 293  189 116 116 189  293 74 74 293  293 61 61 293
VMM 3 P2 j 92  186 115 115 186  292 74 74 292  292 16 16 292  188 117 117 188  292 75 75 292  292 62 62 292
VMM 3 P2 j 93  185 116 116 185  291 75 75 291  291 17 17 291  187 118 118 187  291 76 76 291  291 63 63 291
VMM 3 P2 j 94  184 117 117 184  290 76 76 290  290 18 18 290  186 119 119 186  290 77 77 290  290 64 64 290
VMM 3 P2 j 95  183 118 118 183  289 77 77 289  289 19 19 289  185 120 120 185  289 78 78 289  289 65 65 289
VMM 3 P2 j 96  182 119 119 182  288 78 78 288  288 20 20 288  184 121 121 184  288 79 79 288  288 66 66 288
VMM 3 P2 j 97  181 120 120 181  287 79 79 287  287 21 21 287  183 122 122 183  287 80 80 287  287 67 67 287
VMM 3 P2 j 98  180 121 121 180  286 80 80 286  286 22 22 286  182 123 123 182  286 81 81 286  286 68 68 286
VMM 3 P2 j 99  179 122 122 179  285 81 81 285  285 23 23 285  181 124 124 181  285 82 82 285  285 69 69 285
VMM 3 P2 j 100  178 123 123 178  284 82 82 284  284 24 24 284  180 125 125 180  284 83 83 284  284 70 70 284
VMM 3 P2 j 101  177 124 124 177  283 83 83 283  283 25 25 283  179 126 126 179  283 84 84 283  283 71 71 283
VMM 3 P2 j 102  176 125 125 176  282 84 84 282  282 26 26 282  178 127 127 178  282 85 85 282  282 72 72 282
VMM 3 P2 j 103  175 126 126 175  281 85 85 281  281 27 27 281  177 128 128 177  281 86 86 281  281 73 73 281
VMM 3 P2 j 104  174 127 127 174  280 86 86 280  280 28 28 280  176 129 129 176  280 87 87 280  280 74 74 280
VMM 3 P2 j 105  173 128 128 173  279 87 87 279  279 29 29 279  175 130 130 175  279 88 88 279  279 75 75 279
VMM 3 P2 j 106  172 129 129 172  278 88 88 278  278 30 30 278  174 131 131 174  278 89 89 278  278 76 76 278
VMM 3 P2 j 107  171 130 130 171  277 89 89 277  277 31 31 277  173 132 132 173  277 90 90 277  277 77 77 277
VMM 3 P2 j 108  170 131 131 170  276 90 90 276  276 32 32 276  172 133 133 172  276 91 91 276  276 78 78 276
VMM 3 P2 j 109  169 132 132 169  275 91 91 275  275 33 33 275  171 134 134 171  275 92 92 275  275 79 79 275
VMM 3 P2 j 110  168 133 133 168  274 92 92 274  274 34 34 274  170 135 135 170  274 93 93 274  274 80 80 274
VMM 3 P2 j 111  167 134 134 167  273 93 93 273  273 35 35 273  169 136 136 169  273 94 94 273  273 81 81 273
VMM 3 P2 j 112  166 135 135 166  272 94 94 272  272 36 36 272  168 137 137 168  272 95 95 272  272 82 82 272
VMM 3 P2 j 113  165 136 136 165  271 95 95 271  271 37 37 271  167 138 138 167  271 96 96 271  271 83 83 271
VMM 3 P2 j 114  164 137 137 164  270 96 96 270  270 38 38 270  166 139 139 166  270 97 97 270  270 84 84 270
VMM 3 P2 j 115  163 138 138 163  269 97 97 269  269 39 39 269  165 140 140 165  269 98 98 269  269 85 85 269
VMM 3 P2 j 116  162 139 139 162  268 98 98 268  268 40 40 268  164 141 141 164  268 99 99 268  268 86 86 268
VMM 3 P2 j 117  161 140 140 161  267 99 99 267  267 41 41 267  163 142 142 163  267 100 100 267  267 87 87 267
VMM 3 P2 j 118  160 141 141 160  266 100 100 266  266 42 42 266  162 143 143 162  266 101 101 266  266 88 88 266
VMM 3 P2 j 119  159 142 142 159  265 101 101 265  265 43 43 265  161 144 144 161  265 102 102 265  265 89 89 265
VMM 3 P2 j 120  158 143 143 158  264 102 102 264  264 44 44 264  160 145 145 160  264 103 103 264  264 90 90 264
VMM 3 P2 j 121  157 144 144 157  263 103 103 263  263 45 45 263  159 146 146 159  263 104 104 263  263 91 91 263
VMM 3 P2 j 122  156 145 145 156  262 104 104 262  262 46 46 262  158 147 147 158  262 105 105 262  262 92 92 262
VMM 3 P2 j 123  155 146 146 155  261 105 105 261  261 47 47 261  157 148 148 157  261 106 106 261  261 93 93 261
VMM 3 P2 j 124  154 147 147 154  260 106 106 260  260 48 48 260  156 149 149 156  260 107 107 260  260 94 94 260
VMM 3 P2 j 125  153 148 148 153  259 107 107 259  259 49 49 259  155 150 150 155  259 108 108 259  259 95 95 259
VMM 3 P2 j 126  152 149 149 152  258 108 108 258  258 50 50 258  154 151 151 154  258 109 109 258  258 96 96 258
VMM 3 P2 j 127  151 150 150 151  257 109 109 257  257 51 51 257  153 152 152 153  257 110 110 257  257 97 97 257
VMM 4 P1 i 0  150 151 151 150  256 110 110 256  256 52 52 256  152 153 153 152  256 111 111 256  256 98 98 256
VMM 4 P1 i 1  149 152 152 149  255 111 111 255  255 53 53 255  151 154 154 151  255 112 112 255  255 99 99 255
VMM 4 P1 i 2  148 153 153 148  254 112 112 254  254 54 54 254  150 155 155 150  254 113 113 254  254 100 100 254
VMM 4 P1 i 3  147 154 154 147  253 113 113 253  253 55 55 253  149 156 156 149  253 114 114 253  253 101 101 253
VMM 4 P1 i 4  146 155 155 146  252 114 114 252  252 56 56 252  148 157 157 148  252 115 115 252  252 102 102 252
VMM 4 P1 i 5  145 156 156 145  251 115 115 251  251 57 57 251  147 158 158 147  251 116 116 251  251 103 103 251
VMM 4 P1 i 6  144 157 157 144  250 116 116 250  250 58 58 250  146 159 159 146  250 117 117 250  250 104 104 250
VMM 4 P1 i 7  143 158 158 143  249 117 117 249  249 59 59 249  145 160 160 145  249 118 118 249  249 105 105 249
VMM 4 P1 i 8  142 159 159 142  248 118 118 248  248 60 60 248  144 161 161 144  248 119 119 248  248 106 106 248
VMM 4 P1 i 9  141 160 160 141  247 119 119 247  247 61 61 247  143 162 162 143  247 120 120 247  247 107 107 247
VMM 4 P1 i 10  140 161 161 140  246 120 120 246  246 62 62 246  142 163 163 142  246 121 121 246  246 108 108 246
VMM 4 P1 i 11  139 162 162 139  245 121 121 245  245 63 63 245  141 164 164 141  245 122 122 245  245 109 109 245
VMM 4 P1 i 12  138 163 163 138  244 122 122 244  244 64 64 244  140 165 165 140  244 123 123 244  244 110 110 244
VMM 4 P1 i 13  137 164 164 137  243 123 123 243  243 65 65 243  139 166 166 139  243 124 124 243  243 111 111 243
VMM 4 P1 i 14  136 165 165 136  242 124 124 242  242 66 66 242  138 167 167 138  242 125 125 242  242 112 112 242
VMM 4 P1 i 15  135 166 166 135  241 125 125 241  241 67 67 241  137 168 168 137  241 126 126 241  241 113 113 241
VMM 4 P1 i 16  134 167 167 134  240 126 126 240  240 68 68 240  136 169 169 136  240 127 127 240  240 114 114 240
VMM 4 P1 i 17  133 168 168 133  239 127 127 239  239 69 69 239  135 170 170 135  239 128 128 239  239 115 115 239
VMM 4 P1 i 18  132 169 169 132  238 128 128 238  238 70 70 238  134 171 171 134  238 129 129 238  238 116 116 238
VMM 4 P1 i 19  131 170 170 131  237 129 129 237  237 71 71 237  133 172 172 133  237 130 130 237  237 117 117 237
VMM 4 P1 i 20  130 171 171 130  236 130 130 236  236 72 72 236  132 173 173 132  236 131 131 236  236 118 118 236
VMM 4 P1 i 21  129 172 172 129  235 131 131 235  235 73 73 235  131 174 174 131  235 132 132 235  235 119 119 235
VMM 4 P1 i 22  128 173 173 128  234 132 132 234  234 74 74 234  130 175 175 130  234 133 133 234  234 120 120 234
VMM 4 P1 i 23  127 174 174 127  233 133 133 233  233 75 75 233  129 176 176 129  233 134 134 233  233 121 121 233
VMM 4 P1 i 24  126 175 175 126  232 134 134 232  232 76 76 232  128 177 177 128  232 135 135 232  232 122 122 232
VMM 4 P1 i 25  125 176 176 125  231 135 135 231  231 77 77 231  127 178 178 127  231 136 136 231  231 123 123 231
VMM 4 P1 i 26  124 177 177 124  230 136 136 230  230 78 78 230  126 179 179 126  230 137 137 230  230 124 124 230
VMM 4 P1 i 27  123 178 178 123  229 137 137 229  229 79 79 229  125 180 180 125  229 138 138 229  229 125 125 229
VMM 4 P1 i 28  122 179 179 122  228 138 138 228  228 80 80 228  124 181 181 124  228 139 139 228  228 126 126 228
VMM 4 P1 i 29  121 180 180 121  227 139 139 227  227 81 81 227  123 182 182 123  227 140 140 227  227 127 127 227
VMM 4 P1 i 30  120 181 181 120  226 140 140 226  226 82 82 226  122 183 183 122  226 141 141 226  226 128 128 226
VMM 4 P1 i 31  119 182 182 119  225 141 141 225  225 83 83 225  121 184 184 121  225 142 142 225  225 129 129 225
VMM 4 P1 i 32  118 183 183 118  224 142 142 224  224 84 84 224  120 185 185 120  224 143 143 224  224 130 130 224
VMM 4 P1 i 33  117 184 184 117  223 143 143 223  223 85 85 223  119 186 186 119  223 144 144 223  223 131 131 223
VMM 4 P1 i 34  116 185 185 116  222 144 144 222  222 86 86 222  118 187 187 118  222 145 145 222  222 132 132 222
VMM 4 P1 i 35  115 186 186 115  221 145 145 221  221 87 87 221  117 188 188 117  221 146 146 221  221 133 133 221
VMM 4 P1 i 36  114 187 187 114  220 146 146 220  220 88 88 220  116 189 189 116  220 147 147 220  220 134 134 220
VMM 4 P1 i 37  113 188 188 113  219 147 147 219  219 89 89 219  115 190 190 115  219 148 148 219  219 135 135 219
VMM 4 P1 i 38  112 189 189 112  218 148 148 218  218 90 90 218  114 191 191 114  218 149 149 218  218 136 136 218
VMM 4 P1 i 39  111 190 190 111  217 149 149 217  217 91 91 217  113 192 192 113  217 150 150 217  217 137 137 217
VMM 4 P1 i 40  110 191 191 110  216 150 150 216  216 92 92 216  112 193 193 112  216 151 151 216  216 138 138 216
VMM 4 P1 i 41  109 192 192 109  215 151 151 215  215 93 93 215  111 194 194 111  215 152 152 215  215 139 139 215
VMM 4 P1 i 42  108 193 193 108  214 152 152 214  214 94 94 214  110 195 195 110  214 153 153 214  214 140 140 214
VMM 4 P1 i 43  107 194 194 107  213 153 153 213  213 95 95 213  109 196 196 109  213 154 154 213  213 141 141 213
VMM 4 P1 i 44  106 195 195 106  212 154 154 212  212 96 96 212  108 197 197 108  212 155 155 212  212 142 142 212
VMM 4 P1 i 45  105 196 196 105  211 155 155 211  211 97 97 211  107 198 198 107  211 156 156 211  211 143 143 211
VMM 4 P1 i 46  104 197 197 104  210 156 156 210  210 98 98 210  106 199 199 106  210 157 157 210  210 144 144 210
VMM 4 P1 i 47  103 198 198 103  209 157 157 209  209 99 99 209  105 200 200 105  209 158 158 209  209 145 145 209
VMM 4 P1 i 48  102 199 199 102  208 158 158 208  208 100 100 208  104 201 201 104  208 159 159 208  208 146 146 208
VMM 4 P1 i 49  101 200 200 101  207 159 159 207  207 101 101 207  103 202 202 103  207 160 160 207  207 147 147 207
VMM 4 P1 i 50  100 201 201 100  206 160 160 206  206 102 102 206  102 203 203 102  206 161 161 206  206 148 148 206
VMM 4 P1 i 51  99 202 202 99  205 161 161 205  205 103 103 205  101 204 204 101  205 162 162 205  205 149 149 205
VMM 4 P1 i 52  98 203 203 98  204 162 162 204  204 104 104 204  100 205 205 100  204 163 163 204  204 150 150 204
VMM 4 P1 i 53  97 204 204 97  203 163 163 203  203 105 105 203  99 206 206 99  203 164 164 203  203 151 151 203
VMM 4 P1 i 54  96 205 205 96  202 164 164 202  202 106 106 202  98 207 207 98  202 165 165 202  202 152 152 202
VMM 4 P1 i 55  95 206 206 95  201 165 165 201  201 107 107 201  97 208 208 97  201 166 166 201  201 153 153 201
VMM 4 P1 i 56  94 207 207 94  200 166 166 200  200 108 108 200  96 209 209 96  200 167 167 200  200 154 154 200
VMM 4 P1 i 57  93 208 208 93  199 167 167 199  199 109 109 199  95 210 210 95  199 168 168 199  199 155 155 199
VMM 4 P1 i 58  92 209 209 92  198 168 168 198  198 110 110 198  94 211 211 94  198 169 169 198  198 156 156 198
VMM 4 P1 i 59  91 210 210 91  197 169 169 197  197 111 111 197  93 212 212 93  197 170 170 197  197 157 157 197
VMM 4 P1 i 60  90 211 211 90  196 170 170 196  196 112 112 196  92 213 213 92  196 171 171 196  196 158 158 196
VMM 4 P1 i 61  89 212 212 89  195 171 171 195  195 113 113 195  91 214 214 91  195 172 172 195  195 159 159 195
VMM 4 P1 i 62  88 213 213 88  194 172 172 194  194 114 114 194  90 215 215 90  194 173 173 194  194 160 160 194
VMM 4 P1 i 63  87 214 214 87  193 173 173 193  193 115 115 193  89 216 216 89  193 174 174 193  193 161 161 193
VMM 5 P1 i 64  86 215 215 86  192 174 174 192  192 116 116 192  88 217 217 88  192 175 175 192  192 162 162 192
VMM 5 P1 i 65  85 216 216 85  191 175 175 191  191 117 117 191  87 218 218 87  191 176 176 191  191 163 163 191
VMM 5 P1 i 66  84 217 217 84  190 176 176 190  190 118 118 190  86 219 219 86  190 177 177 190  190 164 164 190
VMM 5 P1 i 67  83 218 218 83  189 177 177 189  189 119 119 189  85 220 220 85  189 178 178 189  189 165 165 189
VMM 5 P1 i 68  82 219 219 82  188 178 178 188  188 120 120 188  84 221 221 84  188 179 179 188  188 166 166 188
VMM 5 P1 i 69  81 220 220 81  187 179 179 187  187 121 121 187  83 222 222 83  187 180 180 187  187 167 167 187
VMM 5 P1 i 70  80 221 221 80  186 180 180 186  186 122 122 186  82 223 223 82  186 181 181 186  186 168 168 186
VMM 5 P1 i 71  79 222 222 79  185 181 181 185  185 123 123 185  81 224 224 81  185 182 182 185  185 169 169 185
VMM 5 P1 i 72  78 223 223 78  184 182 182 184  184 124 124 184  80 225 225 80  184 183 183 184  184 170 170 184
VMM 5 P1 i 73  77 224 224 77  183 183 183 183  183 125 125 183  79 226 226 79  183 184 184 183  183 171 171 183
VMM 5 P1 i 74  76 225 225 76  182 184 184 182  182 126 126 182  78 227 227 78  182 185 185 182  182 172 172 182
VMM 5 P1 i 75  75 226 226 75  181 185 185 181  181 127 127 181  77 228 228 77  181 186 186 181  181 173 173 181
VMM 5 P1 i 76  74 227 227 74  180 186 186 180  180 128 128 180  76 229 229 76  180 187 187 180  180 174 174 180
VMM 5 P1 i 77  73 228 228 73  179 187 187 179  179 129 129 179  75 230 230 75  179 188 188 179  179 175 175 179
VMM 5 P1 i 78  72 229 229 72  178 188 188 178  178 130 130 178  74 231 231 74  178 189 189 178  178 176 176 178
VMM 5 P1 i 79  71 230 230 71  177 189 189 177  177 131 131 177  73 232 232 73  177 190 190 177  177 177 177 177
VMM 5 P1 i 80  -1   231 231 -1    176 190 190 176  176 132 132 176  -1   233 233 -1    176 191 191 176  176 178 178 176
VMM 5 P1 i 81  -1   232 232 -1    175 191 191 175  175 133 133 175  -1   234 234 -1    175 192 192 175  175 179 179 175
VMM 5 P1 i 82  -1   233 233 -1    174 192 192 174  174 134 134 174  -1   235 235 -1    174 193 193 174  174 180 180 174
VMM 5 P1 i 83  -1   234 234 -1    173 193 193 173  173 135 135 173  -1   236 236 -1    173 194 194 173  173 181 181 173
VMM 5 P1 i 84  -1   235 235 -1    172 194 194 172  172 136 136 172  -1   237 237 -1    172 195 195 172  172 182 182 172
VMM 5 P1 i 85  -1   236 236 -1    171 195 195 171  171 137 137 171  -1   238 238 -1    171 196 196 171  171 183 183 171
VMM 5 P1 i 86  -1   237 237 -1    170 196 196 170  170 138 138 170  -1   239 239 -1    170 197 197 170  170 184 184 170
VMM 5 P1 i 87  -1   238 238 -1    169 197 197 169  169 139 139 169  -1   240 240 -1    169 198 198 169  169 185 185 169
VMM 5 P1 i 88  -1   239 239 -1    168 198 198 168  168 140 140 168  -1   241 241 -1    168 199 199 168  168 186 186 168
VMM 5 P1 i 89  -1   240 240 -1    167 199 199 167  167 141 141 167  -1   242 242 -1    167 200 200 167  167 187 187 167
VMM 5 P1 i 90  -1   241 241 -1    166 200 200 166  166 142 142 166  -1   243 243 -1    166 201 201 166  166 188 188 166
VMM 5 P1 i 91  -1   242 242 -1    165 201 201 165  165 143 143 165  -1   244 244 -1    165 202 202 165  165 189 189 165
VMM 5 P1 i 92  -1   243 243 -1    164 202 202 164  164 144 144 164  -1   245 245 -1    164 203 203 164  164 190 190 164
VMM 5 P1 i 93  -1   244 244 -1    163 203 203 163  163 145 145 163  -1   246 246 -1    163 204 204 163  163 191 191 163
VMM 5 P1 i 94  -1   245 245 -1    162 204 204 162  162 146 146 162  -1   247 247 -1    162 205 205 162  162 192 192 162
VMM 5 P1 i 95  -1   246 246 -1    161 205 205 161  161 147 147 161  -1   248 248 -1    161 206 206 161  161 193 193 161
VMM 5 P1 i 96  -1   247 247 -1    160 206 206 160  160 148 148 160  -1   249 249 -1    160 207 207 160  160 194 194 160
VMM 5 P1 i 97  -1   248 248 -1    159 207 207 159  159 149 149 159  -1   250 250 -1    159 208 208 159  159 195 195 159
VMM 5 P1 i 98  -1   249 249 -1    158 208 208 158  158 150 150 158  -1   251 251 -1    158 209 209 158  158 196 196 158
VMM 5 P1 i 99  -1   250 250 -1    157 209 209 157  157 151 151 157  -1   252 252 -1    157 210 210 157  157 197 197 157
VMM 5 P1 i 100  -1   251 251 -1    156 210 210 156  156 152 152 156  -1   253 253 -1    156 211 211 156  156 198 198 156
VMM 5 P1 i 101  -1   252 252 -1    155 211 211 155  155 153 153 155  -1   254 254 -1    155 212 212 155  155 199 199 155
VMM 5 P1 i 102  -1   253 253 -1    154 212 212 154  154 154 154 154  -1   255 255 -1    154 213 213 154  154 200 200 154
VMM 5 P1 i 103  -1   254 254 -1    153 213 213 153  153 155 155 153  -1   256 256 -1    153 214 214 153  153 201 201 153
VMM 5 P1 i 104  -1   255 255 -1    152 214 214 152  152 156 156 152  -1   257 257 -1    152 215 215 152  152 202 202 152
VMM 5 P1 i 105  -1   256 256 -1    151 215 215 151  151 157 157 151  -1   258 258 -1    151 216 216 151  151 203 203 151
VMM 5 P1 i 106  -1   257 257 -1    150 216 216 150  150 158 158 150  -1   259 259 -1    150 217 217 150  150 204 204 150
VMM 5 P1 i 107  -1   258 258 -1    149 217 217 149  149 159 159 149  -1   260 260 -1    149 218 218 149  149 205 205 149
VMM 5 P1 i 108  -1   259 259 -1    148 218 218 148  148 160 160 148  -1   261 261 -1    148 219 219 148  148 206 206 148
VMM 5 P1 i 109  -1   260 260 -1    147 219 219 147  147 161 161 147  -1   262 262 -1    147 220 220 147  147 207 207 147
VMM 5 P1 i 110  -1   261 261 -1    146 220 220 146  146 162 162 146  -1   263 263 -1    146 221 221 146  146 208 208 146
VMM 5 P1 i 111  -1   262 262 -1    145 221 221 145  145 163 163 145  -1   264 264 -1    145 222 222 145  145 209 209 145
VMM 5 P1 i 112  70 263 263 70  144 222 222 144  144 164 164 144  72 265 265 72  144 223 223 144  144 210 210 144
VMM 5 P1 i 113  69 264 264 69  143 223 223 143  143 165 165 143  71 266 266 71  143 224 224 143  143 211 211 143
VMM 5 P1 i 114  68 265 265 68  142 224 224 142  142 166 166 142  70 267 267 70  142 225 225 142  142 212 212 142
VMM 5 P1 i 115  67 266 266 67  141 225 225 141  141 167 167 141  69 268 268 69  141 226 226 141  141 213 213 141
VMM 5 P1 i 116  66 267 267 66  140 226 226 140  140 168 168 140  68 269 269 68  140 227 227 140  140 214 214 140
VMM 5 P1 i 117  65 268 268 65  139 227 227 139  139 169 169 139  67 270 270 67  139 228 228 139  139 215 215 139
VMM 5 P1 i 118  64 269 269 64  138 228 228 138  138 170 170 138  66 271 271 66  138 229 229 138  138 216 216 138
VMM 5 P1 i 119  63 270 270 63  137 229 229 137  137 171 171 137  65 272 272 65  137 230 230 137  137 217 217 137
VMM 5 P1 i 120  62 271 271 62  136 230 230 136  136 172 172 136  64 273 273 64  136 231 231 136  136 218 218 136
VMM 5 P1 i 121  61 272 272 61  135 231 231 135  135 173 173 135  63 274 274 63  135 232 232 135  135 219 219 135
VMM 5 P1 i 122  60 273 273 60  134 232 232 134  134 174 174 134  62 275 275 62  134 233 233 134  134 220 220 134
VMM 5 P1 i 123  59 274 274 59  133 233 233 133  133 175 175 133  61 276 276 61  133 234 234 133  133 221 221 133
VMM 5 P1 i 124  58 275 275 58  132 234 234 132  132 176 176 132  60 277 277 60  132 235 235 132  132 222 222 132
VMM 5 P1 i 125  57 276 276 57  131 235 235 131  131 177 177 131  59 278 278 59  131 236 236 131  131 223 223 131
VMM 5 P1 i 126  56 277 277 56  130 236 236 130  130 178 178 130  58 279 279 58  130 237 237 130  130 224 224 130
VMM 5 P1 i 127  55 278 278 55  129 237 237 129  129 179 179 129  57 280 280 57  129 238 238 129  129 225 225 129
VMM 6 P1 j 0  54 279 279 54  128 238 238 128  128 180 180 128  56 281 281 56  128 239 239 128  128 226 226 128
VMM 6 P1 j 1  53 280 280 53  127 239 239 127  127 181 181 127  55 282 282 55  127 240 240 127  127 227 227 127
VMM 6 P1 j 2  52 281 281 52  126 240 240 126  126 182 182 126  54 283 283 54  126 241 241 126  126 228 228 126
VMM 6 P1 j 3  51 282 282 51  125 241 241 125  125 183 183 125  53 284 284 53  125 242 242 125  125 229 229 125
VMM 6 P1 j 4  50 283 283 50  124 242 242 124  124 184 184 124  52 285 285 52  124 243 243 124  124 230 230 124
VMM 6 P1 j 5  49 284 284 49  123 243 243 123  123 185 185 123  51 286 286 51  123 244 244 123  123 231 231 123
VMM 6 P1 j 6  48 285 285 48  122 244 244 122  122 186 186 122  50 287 287 50  122 245 245 122  122 232 232 122
VMM 6 P1 j 7  47 286 286 47  121 245 245 121  121 187 187 121  49 288 288 49  121 246 246 121  121 233 233 121
VMM 6 P1 j 8  46 287 287 46  120 246 246 120  120 188 188 120  48 289 289 48  120 247 247 120  120 234 234 120
VMM 6 P1 j 9  45 288 288 45  119 247 247 119  119 189 189 119  47 290 290 47  119 248 248 119  119 235 235 119
VMM 6 P1 j 10  44 289 289 44  118 248 248 118  118 190 190 118  46 291 291 46  118 249 249 118  118 236 236 118
VMM 6 P1 j 11  43 290 290 43  117 249 249 117  117 191 191 117  45 292 292 45  117 250 250 117  117 237 237 117
VMM 6 P1 j 12  42 291 291 42  116 250 250 116  116 192 192 116  44 293 293 44  116 251 251 116  116 238 238 116
VMM 6 P1 j 13  41 292 292 41  115 251 251 115  115 193 193 115  43 294 294 43  115 252 252 115  115 239 239 115
VMM 6 P1 j 14  40 293 293 40  114 252 252 114  114 194 194 114  42 295 295 42  114 253 253 114  114 240 240 114
VMM 6 P1 j 15  39 294 294 39  113 253 253 113  113 195 195 113  41 296 296 41  113 254 254 113  113 241 241 113
VMM 6 P1 j 16  -1   295 295 -1    112 254 254 112  112 196 196 112  -1   297 297 -1    112 255 255 112  112 242 242 112
VMM 6 P1 j 17  -1   296 296 -1    111 255 255 111  111 197 197 111  -1   298 298 -1    111 256 256 111  111 243 243 111
VMM 6 P1 j 18  -1   297 297 -1    110 256 256 110  110 198 198 110  -1   299 299 -1    110 257 257 110  110 244 244 110
VMM 6 P1 j 19  -1   298 298 -1    109 257 257 109  109 199 199 109  -1   300 300 -1    109 258 258 109  109 245 245 109
VMM 6 P1 j 20  -1   299 299 -1    108 258 258 108  108 200 200 108  -1   301 301 -1    108 259 259 108  108 246 246 108
VMM 6 P1 j 21  -1   300 300 -1    107 259 259 107  107 201 201 107  -1   302 302 -1    107 260 260 107  107 247 247 107
VMM 6 P1 j 22  -1   301 301 -1    106 260 260 106  106 202 202 106  -1   303 303 -1    106 261 261 106  106 248 248 106
VMM 6 P1 j 23  -1   302 302 -1    105 261 261 105  105 203 203 105  -1   304 304 -1    105 262 262 105  105 249 249 105
VMM 6 P1 j 24  -1   303 303 -1    104 262 262 104  104 204 204 104  -1   305 305 -1    104 263 263 104  104 250 250 104
VMM 6 P1 j 25  -1   304 304 -1    103 263 263 103  103 205 205 103  -1   306 306 -1    103 264 264 103  103 251 251 103
VMM 6 P1 j 26  -1   305 305 -1    102 264 264 102  102 206 206 102  -1   307 307 -1    102 265 265 102  102 252 252 102
VMM 6 P1 j 27  -1   306 306 -1    101 265 265 101  101 207 207 101  -1   308 308 -1    101 266 266 101  101 253 253 101
VMM 6 P1 j 28  -1   307 307 -1    100 266 266 100  100 208 208 100  -1   309 309 -1    100 267 267 100  100 254 254 100
VMM 6 P1 j 29  -1   308 308 -1    99 267 267 99  99 209 209 99  -1   310 310 -1    99 268 268 99  99 255 255 99
VMM 6 P1 j 30  -1   309 309 -1    98 268 268 98  98 210 210 98  -1   311 311 -1    98 269 269 98  98 256 256 98
VMM 6 P1 j 31  -1   310 310 -1    97 269 269 97  97 211 211 97  -1   312 312 -1    97 270 270 97  97 257 257 97
VMM 6 P1 j 32  -1   311 311 -1    96 270 270 96  96 212 212 96  -1   313 313 -1    96 271 271 96  96 258 258 96
VMM 6 P1 j 33  -1   312 312 -1    95 271 271 95  95 213 213 95  -1   314 314 -1    95 272 272 95  95 259 259 95
VMM 6 P1 j 34  -1   313 313 -1    94 272 272 94  94 214 214 94  -1   315 315 -1    94 273 273 94  94 260 260 94
VMM 6 P1 j 35  -1   314 314 -1    93 273 273 93  93 215 215 93  -1   316 316 -1    93 274 274 93  93 261 261 93
VMM 6 P1 j 36  -1   315 315 -1    92 274 274 92  92 216 216 92  -1   317 317 -1    92 275 275 92  92 262 262 92
VMM 6 P1 j 37  -1   316 316 -1    91 275 275 91  91 217 217 91  -1   318 318 -1    91 276 276 91  91 263 263 91
VMM 6 P1 j 38  -1   317 317 -1    90 276 276 90  90 218 218 90  -1   319 319 -1    90 277 277 90  90 264 264 90
VMM 6 P1 j 39  -1   318 318 -1    89 277 277 89  89 219 219 89  -1   320 320 -1    89 278 278 89  89 265 265 89
VMM 6 P1 j 40  -1   319 319 -1    88 278 278 88  88 220 220 88  -1   321 321 -1    88 279 279 88  88 266 266 88
VMM 6 P1 j 41  -1   320 320 -1    87 279 279 87  87 221 221 87  -1   322 322 -1    87 280 280 87  87 267 267 87
VMM 6 P1 j 42  -1   321 321 -1    86 280 280 86  86 222 222 86  -1   323 323 -1    86 281 281 86  86 268 268 86
VMM 6 P1 j 43  -1   322 322 -1    85 281 281 85  85 223 223 85  -1   324 324 -1    85 282 282 85  85 269 269 85
VMM 6 P1 j 44  -1   323 323 -1    84 282 282 84  84 224 224 84  -1   325 325 -1    84 283 283 84  84 270 270 84
VMM 6 P1 j 45  -1   324 324 -1    83 283 283 83  83 225 225 83  -1   326 326 -1    83 284 284 83  83 271 271 83
VMM 6 P1 j 46  -1   325 325 -1    82 284 284 82  82 226 226 82  -1   327 327 -1    82 285 285 82  82 272 272 82
VMM 6 P1 j 47  -1   326 326 -1    81 285 285 81  81 227 227 81  -1   328 328 -1    81 286 286 81  81 273 273 81
VMM 6 P1 j 48  38 327 327 38  80 286 286 80  80 228 228 80  40 329 329 40  80 287 287 80  80 274 274 80
VMM 6 P1 j 49  37 328 328 37  79 287 287 79  79 229 229 79  39 330 330 39  79 288 288 79  79 275 275 79
VMM 6 P1 j 50  36 329 329 36  78 288 288 78  78 230 230 78  38 331 331 38  78 289 289 78  78 276 276 78
VMM 6 P1 j 51  35 330 330 35  77 289 289 77  77 231 231 77  37 332 332 37  77 290 290 77  77 277 277 77
VMM 6 P1 j 52  34 331 331 34  76 290 290 76  76 232 232 76  36 333 333 36  76 291 291 76  76 278 278 76
VMM 6 P1 j 53  33 332 332 33  75 291 291 75  75 233 233 75  35 334 334 35  75 292 292 75  75 279 279 75
VMM 6 P1 j 54  32 333 333 32  74 292 292 74  74 234 234 74  34 335 335 34  74 293 293 74  74 280 280 74
VMM 6 P1 j 55  31 334 334 31  73 293 293 73  73 235 235 73  33 336 336 33  73 294 294 73  73 281 281 73
VMM 6 P1 j 56  30 335 335 30  72 294 294 72  72 236 236 72  32 337 337 32  72 295 295 72  72 282 282 72
VMM 6 P1 j 57  29 336 336 29  71 295 295 71  71 237 237 71  31 338 338 31  71 296 296 71  71 283 283 71
VMM 6 P1 j 58  28 337 337 28  70 296 296 70  70 238 238 70  30 339 339 30  70 297 297 70  70 284 284 70
VMM 6 P1 j 59  27 338 338 27  69 297 297 69  69 239 239 69  29 340 340 29  69 298 298 69  69 285 285 69
VMM 6 P1 j 60  26 339 339 26  68 298 298 68  68 240 240 68  28 341 341 28  68 299 299 68  68 286 286 68
VMM 6 P1 j 61  25 340 340 25  67 299 299 67  67 241 241 67  27 342 342 27  67 300 300 67  67 287 287 67
VMM 6 P1 j 62  24 341 341 24  66 300 300 66  66 242 242 66  26 343 343 26  66 301 301 66  66 288 288 66
VMM 6 P1 j 63  23 342 342 23  65 301 301 65  65 243 243 65  25 344 344 25  65 302 302 65  65 289 289 65
VMM 7 P1 j 64  22 343 343 22  64 302 302 64  64 244 244 64  24 345 345 24  64 303 303 64  64 290 290 64
VMM 7 P1 j 65  21 344 344 21  63 303 303 63  63 245 245 63  23 346 346 23  63 304 304 63  63 291 291 63
VMM 7 P1 j 66  20 345 345 20  62 304 304 62  62 246 246 62  22 347 347 22  62 305 305 62  62 292 292 62
VMM 7 P1 j 67  19 346 346 19  61 305 305 61  61 247 247 61  21 348 348 21  61 306 306 61  61 293 293 61
VMM 7 P1 j 68  18 347 347 18  60 306 306 60  60 248 248 60  20 349 349 20  60 307 307 60  60 294 294 60
VMM 7 P1 j 69  17 348 348 17  59 307 307 59  59 249 249 59  19 350 350 19  59 308 308 59  59 295 295 59
VMM 7 P1 j 70  16 349 349 16  58 308 308 58  58 250 250 58  18 351 351 18  58 309 309 58  58 296 296 58
VMM 7 P1 j 71  15 350 350 15  57 309 309 57  57 251 251 57  17 352 352 17  57 310 310 57  57 297 297 57
VMM 7 P1 j 72  14 351 351 14  56 310 310 56  56 252 252 56  16 353 353 16  56 311 311 56  56 298 298 56
VMM 7 P1 j 73  13 352 352 13  55 311 311 55  55 253 253 55  15 354 354 15  55 312 312 55  55 299 299 55
VMM 7 P1 j 74  12 353 353 12  54 312 312 54  54 254 254 54  14 355 355 14  54 313 313 54  54 300 300 54
VMM 7 P1 j 75  11 354 354 11  53 313 313 53  53 255 255 53  13 356 356 13  53 314 314 53  53 301 301 53
VMM 7 P1 j 76  10 355 355 10  52 314 314 52  52 256 256 52  12 357 357 12  52 315 315 52  52 302 302 52
VMM 7 P1 j 77  9 356 356 9  51 315 315 51  51 257 257 51  11 358 358 11  51 316 316 51  51 303 303 51
VMM 7 P1 j 78  8 357 357 8  50 316 316 50  50 258 258 50  10 359 359 10  50 317 317 50  50 304 304 50
VMM 7 P1 j 79  7 358 358 7  49 317 317 49  49 259 259 49  9 360 360 9  49 318 318 49  49 305 305 49
VMM 7 P1 j 80  6 359 359 6  48 318 318 48  48 260 260 48  8 361 361 8  48 319 319 48  48 306 306 48
VMM 7 P1 j 81  5 360 360 5  47 319 319 47  47 261 261 47  7 362 362 7  47 320 320 47  47 307 307 47
VMM 7 P1 j 82  4 361 361 4  46 320 320 46  46 262 262 46  6 363 363 6  46 321 321 46  46 308 308 46
VMM 7 P1 j 83  3 362 362 3  45 321 321 45  45 263 263 45  5 364 364 5  45 322 322 45  45 309 309 45
VMM 7 P1 j 84  2 363 363 2  44 322 322 44  44 264 264 44  4 365 365 4  44 323 323 44  44 310 310 44
VMM 7 P1 j 85  1 364 364 1  43 323 323 43  43 265 265 43  3 366 366 3  43 324 324 43  43 311 311 43
VMM 7 P1 j 86  -1   365 365 -1    42 324 324 42  42 266 266 42  2 367 367 2  42 325 325 42  42 312 312 42
VMM 7 P1 j 87  -1   366 366 -1    41 325 325 41  41 267 267 41  1 368 368 1  41 326 326 41  41 313 313 41
VMM 7 P1 j 88  -1   367 367 -1    40 326 326 40  40 268 268 40  -1   369 369 -1    40 327 327 40  40 314 314 40
VMM 7 P1 j 89  -1   368 368 -1    39 327 327 39  39 269 269 39  -1   370 370 -1    39 328 328 39  39 315 315 39
VMM 7 P1 j 90  -1   369 369 -1    38 328 328 38  38 270 270 38  -1   371 371 -1    38 329 329 38  38 316 316 38
VMM 7 P1 j 91  -1   370 370 -1    37 329 329 37  37 271 271 37  -1   372 372 -1    37 330 330 37  37 317 317 37
VMM 7 P1 j 92  -1   371 371 -1    36 330 330 36  36 272 272 36  -1   373 373 -1    36 331 331 36  36 318 318 36
VMM 7 P1 j 93  -1   372 372 -1    35 331 331 35  35 273 273 35  -1   374 374 -1    35 332 332 35  35 319 319 35
VMM 7 P1 j 94  -1   373 373 -1    34 332 332 34  34 274 274 34  -1   375 375 -1    34 333 333 34  34 320 320 34
VMM 7 P1 j 95  -1   374 374 -1    33 333 333 33  33 275 275 33  -1   376 376 -1    33 334 334 33  33 321 321 33
VMM 7 P1 j 96  -1   375 375 -1    32 334 334 32  32 276 276 32  -1   377 377 -1    32 335 335 32  32 322 322 32
VMM 7 P1 j 97  -1   376 376 -1    31 335 335 31  31 277 277 31  -1   378 378 -1    31 336 336 31  31 323 323 31
VMM 7 P1 j 98  -1   377 377 -1    30 336 336 30  30 278 278 30  -1   379 379 -1    30 337 337 30  30 324 324 30
VMM 7 P1 j 99  -1   378 378 -1    29 337 337 29  29 279 279 29  -1   380 380 -1    29 338 338 29  29 325 325 29
VMM 7 P1 j 100  -1   379 379 -1    28 338 338 28  28 280 280 28  -1   381 381 -1    28 339 339 28  28 326 326 28
VMM 7 P1 j 101  -1   380 380 -1    27 339 339 27  27 281 281 27  -1   382 382 -1    27 340 340 27  27 327 327 27
VMM 7 P1 j 102  -1   381 381 -1    26 340 340 26  26 282 282 26  -1   383 383 -1    26 341 341 26  26 328 328 26
VMM 7 P1 j 103  -1   382 382 -1    25 341 341 25  25 283 283 25  -1   384 384 -1    25 342 342 25  25 329 329 25
VMM 7 P1 j 104  -1   383 383 -1    24 342 342 24  24 284 284 24  -1   385 385 -1    24 343 343 24  24 330 330 24
VMM 7 P1 j 105  -1   384 384 -1    23 343 343 23  23 285 285 23  -1   386 386 -1    23 344 344 23  23 331 331 23
VMM 7 P1 j 106  -1   385 385 -1    22 344 344 22  22 286 286 22  -1   387 387 -1    22 345 345 22  22 332 332 22
VMM 7 P1 j 107  -1   386 386 -1    21 345 345 21  21 287 287 21  -1   388 388 -1    21 346 346 21  21 333 333 21
VMM 7 P1 j 108  -1   387 387 -1    20 346 346 20  20 288 288 20  -1   389 389 -1    20 347 347 20  20 334 334 20
VMM 7 P1 j 109  -1   388 388 -1    19 347 347 19  19 289 289 19  -1   390 390 -1    19 348 348 19  19 335 335 19
VMM 7 P1 j 110  -1   389 389 -1    18 348 348 18  18 290 290 18  -1   391 391 -1    18 349 349 18  18 336 336 18
VMM 7 P1 j 111  -1   390 390 -1    17 349 349 17  17 291 291 17  -1   392 392 -1    17 350 350 17  17 337 337 17
VMM 7 P1 j 112  -1   391 391 -1    16 350 350 16  16 292 292 16  -1   393 393 -1    16 351 351 16  16 338 338 16
VMM 7 P1 j 113  -1   392 392 -1    15 351 351 15  15 293 293 15  -1   394 394 -1    15 352 352 15  15 339 339 15
VMM 7 P1 j 114  -1   393 393 -1    14 352 352 14  14 294 294 14  -1   395 395 -1    14 353 353 14  14 340 340 14
VMM 7 P1 j 115  -1   394 394 -1    13 353 353 13  13 295 295 13  -1   396 396 -1    13 354 354 13  13 341 341 13
VMM 7 P1 j 116  -1   395 395 -1    12 354 354 12  12 296 296 12  -1   397 397 -1    12 355 355 12  12 342 342 12
VMM 7 P1 j 117  -1   396 396 -1    11 355 355 11  11 297 297 11  -1   398 398 -1    11 356 356 11  11 343 343 11
VMM 7 P1 j 118  -1   397 397 -1    10 356 356 10  10 298 298 10  -1   399 399 -1    10 357 357 10  10 344 344 10
VMM 7 P1 j 119  -1   398 398 -1    9 357 357 9  9 299 299 9  -1   400 400 -1    9 358 358 9  9 345 345 9
VMM 7 P1 j 120  -1   399 399 -1    8 358 358 8  8 300 300 8  -1   401 401 -1    8 359 359 8  8 346 346 8
VMM 7 P1 j 121  -1   400 400 -1    7 359 359 7  7 301 301 7  -1   402 402 -1    7 360 360 7  7 347 347 7
VMM 7 P1 j 122  -1   401 401 -1    6 360 360 6  6 302 302 6  -1   403 403 -1    6 361 361 6  6 348 348 6
VMM 7 P1 j 123  -1   402 402 -1    5 361 361 5  5 303 303 5  -1   404 404 -1    5 362 362 5  5 349 349 5
VMM 7 P1 j 124  -1   403 403 -1    4 362 362 4  4 304 304 4  -1   405 405 -1    4 363 363 4  4 350 350 4
VMM 7 P1 j 125  -1   404 404 -1    3 363 363 3  3 305 305 3  -1   406 406 -1    3 364 364 3  3 351 351 3
VMM 7 P1 j 126  -1   405 405 -1    2 364 364 2  2 306 306 2  -1   407 407 -1    2 365 365 2  2 352 352 2
VMM 7 P1 j 127  -1   406 406 -1    1 365 365 1  1 307 307 1  -1   408 408 -1    1 366 366 1  1 353 353 1
                                 
                                 
                                 
                                 
                                 
